D:\workspace\MercerPoC\src\in\lnt\parser\CSVParser.java
D:\workspace\MercerPoC\src\in\lnt\customcomponent\MongoInsert.java
D:\workspace\MercerPoC\src\in\lnt\customcomponent\Validator.java
D:\workspace\MercerPoC\src\in\lnt\mongo\MongoLoader.java
D:\workspace\MercerPoC\src\in\lnt\rabbitmq\recieve2.java
D:\workspace\MercerPoC\src\in\lnt\utility\general\Cache.java
D:\workspace\MercerPoC\src\in\lnt\utility\constants\LoggerConstants.java
D:\workspace\MercerPoC\src\in\lnt\validations\MandatoryValidations.java
D:\workspace\MercerPoC\src\in\lnt\validations\TransformationCreator.java
D:\workspace\MercerPoC\src\in\lnt\validations\ValidationGenerator.java
D:\workspace\MercerPoC\src\in\lnt\utility\constants\CacheConstats.java
D:\workspace\MercerPoC\src\in\lnt\rabbitmq\Send.java
D:\workspace\MercerPoC\src\in\lnt\parser\Wrapper.java
D:\workspace\MercerPoC\src\in\lnt\udf\Decode.java
D:\workspace\MercerPoC\src\in\lnt\udf\DateDifference.java
D:\workspace\MercerPoC\src\in\lnt\rabbitmq\consumer\ConsumerNProducer.java
D:\workspace\MercerPoC\src\in\lnt\hiveQueryPerformanceTest\Test.java
D:\workspace\MercerPoC\src\in\lnt\rabbitmq\Send2.java
D:\workspace\MercerPoC\src\in\lnt\parser\JsonAsMap.java
D:\workspace\MercerPoC\src\in\lnt\connector\MongoConnector.java
D:\workspace\MercerPoC\src\in\lnt\enums\QueueListConsumer.java
D:\workspace\MercerPoC\src\in\lnt\enums\ValidationTypes.java
D:\workspace\MercerPoC\src\in\lnt\validations\ValidationBso.java
D:\workspace\MercerPoC\src\in\lnt\enums\DataTypes.java
D:\workspace\MercerPoC\src\in\lnt\connector\RabbitMQConnector.java
D:\workspace\MercerPoC\src\in\lnt\rabbitmq\consumer\ServiceAsThread.java
D:\workspace\MercerPoC\src\in\lnt\spring_rabbitmq\Application.java
D:\workspace\MercerPoC\src\in\lnt\enums\TransformationTypes.java
D:\workspace\MercerPoC\src\in\lnt\rabbitmq\consumer\RMQChannelSetup.java
D:\workspace\MercerPoC\src\in\lnt\spring_rabbitmq\Receiver.java
D:\workspace\MercerPoC\src\in\lnt\customcomponent\MercerLoader.java
D:\workspace\MercerPoC\src\in\lnt\datageneration\DataGeneartion.java
D:\workspace\MercerPoC\src\in\lnt\spring_rabbitmq\Runner.java
D:\workspace\MercerPoC\src\in\lnt\parser\JsonParser.java
